﻿{
  "Descriptor": {
    "UId": "0668225f-499b-44a5-b958-9741bea767b0",
    "Name": "DlGeneratePerformances",
    "ModifiedOnUtc": "\/Date(1690388795000)\/",
    "ManagerName": "ProcessSchemaManager",
    "Caption": "БП Генерации записей выступлений"
  }
}