﻿{
  "Descriptor": {
    "UId": "ad6ccd0b-322b-431d-afb5-2a5f0c1e72d8",
    "Name": "DlPerformanceStatus",
    "ModifiedOnUtc": "\/Date(1690228697000)\/",
    "Parent": {
      "UId": "11ab4bcb-9b23-4b6d-9c86-520fae925d75",
      "Name": "BaseLookup"
    },
    "ManagerName": "EntitySchemaManager",
    "Caption": "Состояние выступления"
  }
}