﻿{
  "PackageData": [
    {
      "Row": [
        {
          "SchemaColumnUId": "ae0e45ca-c495-4fe7-a39d-3ab7278e1617",
          "ColumnName": "Id",
          "Value": "80eb8b25-e7b7-4053-bd99-2b7be1226915"
        },
        {
          "SchemaColumnUId": "215e82ee-20b0-4aa2-af3b-ff06cbc6da52",
          "ColumnName": "Name",
          "Value": "Общее"
        }
      ]
    }
  ]
}