﻿{
  "PackageData": [
    {
      "Row": [
        {
          "SchemaColumnUId": "ae0e45ca-c495-4fe7-a39d-3ab7278e1617",
          "Value": "43c9e60c-0d76-4e77-b143-140751959c59"
        },
        {
          "SchemaColumnUId": "8585929c-62ae-4673-ae8d-bb37f87e5144",
          "Value": "c2168a3c-f268-4e8f-8ba4-69feb5f8ffbe"
        },
        {
          "SchemaColumnUId": "631e7238-2751-4a21-b6d6-9f1ac0c84f95",
          "Value": "9084b42f-3b1e-43f5-90c0-dcfa605c126f"
        }
      ]
    }
  ]
}