﻿{
  "Descriptor": {
    "UId": "8973ec67-4cda-4670-8d82-385a82dc53f9",
    "Name": "DlConcertProgramSection",
    "ModifiedOnUtc": "\/Date(1690227295000)\/",
    "Parent": {
      "UId": "7912fb69-4fee-429f-8b23-93943c35d66d",
      "Name": "BaseSectionV2"
    },
    "ManagerName": "ClientUnitSchemaManager",
    "Caption": "Схема раздела: \"Концертная программа\"",
    "DependsOn": []
  }
}